<?xml version="1.0" encoding="utf-8"?>
<!-- Generator: Adobe Illustrator 21.1.0, SVG Export Plug-In . SVG Version: 6.00 Build 0)  -->
<svg version="1.1" id="Layer_1" xmlns="http://www.w3.org/2000/svg" xmlns:xlink="http://www.w3.org/1999/xlink" x="0px" y="0px"
	 viewBox="0 0 144 144" style="enable-background:new 0 0 144 144;" xml:space="preserve">
<style type="text/css">
	.st0{fill:#9E2064;}
</style>
<g transform="translate(0,-952.36216)">
	<path class="st0" d="M109.8,1048.7c-11.8,0-21.3,9.5-21.3,21.3c0,11.8,9.5,21.3,21.3,21.3c11.8,0,21.3-9.5,21.3-21.3
		C131.1,1058.3,121.5,1048.7,109.8,1048.7L109.8,1048.7z M107.4,1058.1h4.8v2.7c0.9,0.2,1.7,0.6,2.4,1.1l1.9-1.9l3.4,3.4l-1.9,1.9
		c0.5,0.7,0.8,1.5,1.1,2.4h2.7v4.8H119c-0.2,0.9-0.6,1.8-1.1,2.6l1.9,1.9l-3.4,3.4l-2.1-2.1c-0.7,0.5-1.4,0.8-2.2,1.1v2.8h-4.8v-2.7
		c-0.9-0.2-1.7-0.5-2.5-1l-1.9,1.9l-3.4-3.4l2-2c-0.5-0.8-0.8-1.6-1-2.4h-2.7v-4.8h2.7c0.2-0.8,0.6-1.6,1-2.3l-2-2l3.4-3.4l2,2
		c0.8-0.4,1.6-0.7,2.5-0.8L107.4,1058.1L107.4,1058.1z M109.5,1065.6c-0.2,0-0.3,0-0.4,0c-1.1,0.2-2.1,0.7-2.7,1.5
		c0,0.1-0.1,0.1-0.1,0.2c-0.5,0.7-0.9,1.6-0.9,2.6c0,1.8,1.1,3.4,2.7,4.1c0.1,0.1,0.3,0.1,0.4,0.1c0.4,0.1,0.9,0.2,1.3,0.2h0.2
		c0.4,0,0.7-0.1,1.1-0.2c0.1,0,0.3-0.1,0.4-0.1c1.6-0.7,2.7-2.2,2.7-4.1c0-2.2-1.6-4-3.7-4.3c-0.1,0-0.3,0-0.4,0h-0.2l0,0
		L109.5,1065.6L109.5,1065.6z"/>
	<path class="st0" d="M12.9,957.4c0,39.1,0,78.1,0,117.2h72.3v-3H15.9V960.4h92.4v85.2l3,0v-88.2L12.9,957.4z"/>
	<path class="st0" d="M32.3,1013.4v3H92v-3H32.3z"/>
	<path class="st0" d="M43.5,1049.1v3h37.3v-3H43.5z"/>
	<path class="st0" d="M32.3,1025.3v3H92v-3H32.3z"/>
	<path class="st0" d="M32.3,1037.2v3H92v-3H32.3z"/>
	<path class="st0" d="M62.1,966.9c-6.9,0-12.5,5.7-12.5,12.6c0,2.9,1,5.6,2.7,7.8l-5.8,15.2l7.7-3.1l3.7,7.2l4.2-11.7l4.4,11.7
		l3.5-7.3l7.8,3.4l-6.1-15.1c1.8-2.2,2.9-5,2.9-8.1C74.6,972.6,69,966.9,62.1,966.9L62.1,966.9z M62.1,969.9c5.3,0,9.5,4.3,9.5,9.6
		c0,5.3-4.3,9.6-9.5,9.6s-9.5-4.3-9.5-9.6C52.6,974.2,56.9,969.9,62.1,969.9z M54.6,989.6c1.6,1.2,3.4,2,5.4,2.4l-2.6,7.2l-1.9-3.6
		l-3.8,1.6L54.6,989.6z M69.4,989.8l2.9,7.2l-3.7-1.6l-1.7,3.6l-2.7-7C66.1,991.6,67.9,990.9,69.4,989.8L69.4,989.8z"/>
</g>
</svg>
